('C:\\Users\\vinic\\OneDrive\\Trabalho\\consultorias\\BeijaFlore\\Teste\\build\\Teste\\PKG-00.pkg',
 {'BINARY': 1,
  'DATA': 1,
  'EXECUTABLE': 1,
  'EXTENSION': 1,
  'PYMODULE': 1,
  'PYSOURCE': 1,
  'PYZ': 0},
 [('PYZ-00.pyz',
   'C:\\Users\\vinic\\OneDrive\\Trabalho\\consultorias\\BeijaFlore\\Teste\\build\\Teste\\PYZ-00.pyz',
   'PYZ'),
  ('struct',
   'c:\\users\\vinic\\appdata\\local\\programs\\python\\python37\\lib\\struct.pyo',
   'PYMODULE'),
  ('pyimod01_os_path',
   'c:\\users\\vinic\\appdata\\local\\programs\\python\\python37\\lib\\site-packages\\PyInstaller\\loader\\pyimod01_os_path.pyc',
   'PYMODULE'),
  ('pyimod02_archive',
   'c:\\users\\vinic\\appdata\\local\\programs\\python\\python37\\lib\\site-packages\\PyInstaller\\loader\\pyimod02_archive.pyc',
   'PYMODULE'),
  ('pyimod03_importers',
   'c:\\users\\vinic\\appdata\\local\\programs\\python\\python37\\lib\\site-packages\\PyInstaller\\loader\\pyimod03_importers.pyc',
   'PYMODULE'),
  ('pyiboot01_bootstrap',
   'c:\\users\\vinic\\appdata\\local\\programs\\python\\python37\\lib\\site-packages\\PyInstaller\\loader\\pyiboot01_bootstrap.py',
   'PYSOURCE'),
  ('Teste',
   'C:\\Users\\vinic\\OneDrive\\Trabalho\\consultorias\\BeijaFlore\\Teste\\Teste.py',
   'PYSOURCE'),
  ('Teste.exe.manifest',
   'C:\\Users\\vinic\\OneDrive\\Trabalho\\consultorias\\BeijaFlore\\Teste\\build\\Teste\\Teste.exe.manifest',
   'BINARY')],
 True,
 False,
 False)
